03_Synthesis/05_39_36_RS_SSC_DSD/Decoder/sim/output/VerdiLog/sim.log
Command: /home/kkh/AIDC/sim/output/simv -sml=verdi +fsdb+gate=off -ucli2Proc -ucli -l /home/kkh/AIDC/sim/output/VerdiLog/sim.log
Chronologic VCS simulator copyright 1991-2020
Contains Synopsys proprietary information.
Compiler version R-2020.12-SP1-1_Full64; Runtime version R-2020.12-SP1-1_Full64;  Oct 28 15:58 2022

ucli% loaddl -simv /usr/synopsys/verdi/R-2020.12-SP1-1/share/PLI/VCS/LINUXAMD64/libnovas.so LoadFSDBDumpCmd;LoadFSDBDumpCmd
LoadFSDBDumpCmd success
ucli% config ckptfsdbcheck off;config endofsim noexit;config onfail {enable all};config followactivescope on;catch {setUcliVerdiConnected};set watch::resultTagsForVerdiBP {<ucli_break_bp_status_begin> <ucli_break_bp_status_end>};set ucliCore::support_restore_through_stask_in_verdi 1;cbug::config pretty_print auto;fsdbDumpfile {/home/kkh/AIDC/sim/output/inter.fsdb} ;fsdbDumpflush ; 
*Verdi* Loading libsscore_vcs202012.so
FSDB Dumper for VCS, Release Verdi_R-2020.12-SP1-1, Linux x86_64/64bit, 04/20/2021
(C) 1996 - 2021 by Synopsys, Inc.
*Verdi* FSDB WARNING: The FSDB file already exists. Overwriting the FSDB file may crash the programs that are using this file.
*Verdi* : Create FSDB file '/home/kkh/AIDC/sim/output/inter.fsdb'
*Verdi* : Flush all FSDB Files at 0 ps.

ucli% fsdbDumpvars 1 "tbench_top.DUT.u_decomp_flag_fifos.u_flag_fifos_decomp.READ_MODIFY_WRITE_INST.clk"  +all +trace_process;fsdbDumpvars 1 "tbench_top.DUT.u_decomp_flag_fifos.u_flag_fifos_decomp.READ_MODIFY_WRITE_INST.rst_n"  +all +trace_process;fsdbDumpvars 1 "tbench_top.DUT.u_decomp_flag_fifos.u_flag_fifos_decomp.READ_MODIFY_WRITE_INST.addr"  +all +trace_process;fsdbDumpvars 1 "tbench_top.DUT.u_decomp_flag_fifos.u_flag_fifos_decomp.READ_MODIFY_WRITE_INST.addr_valid"  +all +trace_process;fsdbDumpvars 1 "tbench_top.DUT.u_decomp_flag_fifos.u_flag_fifos_decomp.READ_MODIFY_WRITE_INST.push_pop_flag"  +all +trace_process;fsdbDumpvars 1 "tbench_top.DUT.u_decomp_flag_fifos.u_flag_fifos_decomp.READ_MODIFY_WRITE_INST.push_data"  +all +trace_process;fsdbDumpvars 1 "tbench_top.DUT.u_decomp_flag_fifos.u_flag_fifos_decomp.READ_MODIFY_WRITE_INST.ack_i"  +all +trace_process;fsdbDumpvars 1 "tbench_top.DUT.u_decomp_flag_fifos.u_flag_fifos_decomp.READ_MODIFY_WRITE_INST.pop_data"  +all +trace_process;fsdbDumpvars 1 "tbench_top.DUT.u_decomp_flag_fifos.u_flag_fifos_decomp.READ_MODIFY_WRITE_INST.pop_valid"  +all +trace_process;fsdbDumpflush 
*Verdi* : Dumping the signal (tbench_top.DUT.u_decomp_flag_fifos.u_flag_fifos_decomp.READ_MODIFY_WRITE_INST.clk).
*Verdi* : Dumping the signal (tbench_top.DUT.u_decomp_flag_fifos.u_flag_fifos_decomp.READ_MODIFY_WRITE_INST.rst_n).
*Verdi* : Dumping the signal (tbench_top.DUT.u_decomp_flag_fifos.u_flag_fifos_decomp.READ_MODIFY_WRITE_INST.addr).
*Verdi* : Dumping the signal (tbench_top.DUT.u_decomp_flag_fifos.u_flag_fifos_decomp.READ_MODIFY_WRITE_INST.addr_valid).
*Verdi* : Dumping the signal (tbench_top.DUT.u_decomp_flag_fifos.u_flag_fifos_decomp.READ_MODIFY_WRITE_INST.push_pop_flag).
*Verdi* : Dumping the signal (tbench_top.DUT.u_decomp_flag_fifos.u_flag_fifos_decomp.READ_MODIFY_WRITE_INST.push_data).
*Verdi* : Dumping the signal (tbench_top.DUT.u_decomp_flag_fifos.u_flag_fifos_decomp.READ_MODIFY_WRITE_INST.ack_i).
*Verdi* : Dumping the signal (tbench_top.DUT.u_decomp_flag_fifos.u_flag_fifos_decomp.READ_MODIFY_WRITE_INST.pop_data).
*Verdi* : Dumping the signal (tbench_top.DUT.u_decomp_flag_fifos.u_flag_fifos_decomp.READ_MODIFY_WRITE_INST.pop_valid).
*Verdi* : Flush all FSDB Files at 0 ps.

ucli% synEnv::hasFataled
0
ucli% ucliCore::getToolPID
8793
ucli% sps_interactive
*Verdi* : Enable RPC Server(8793)

ucli% ucliCore::getToolPID
8793
ucli% ucliCore::getToolPID
8793
ucli% if {[catch {ucliCore::setFocus tool}]} {}

ucli% puts $ucliCore::nativeUcliMode
0

ucli% ucliCore::getToolTopPID
8793
ucli% pid
8808
ucli% synUtils::sendTool -active {_icl_createSharedMemory /tmp/vcs_dve_general.kkh.8793 }

ucli% if { [info vars watch::vcbp_str_len_limit_of_get_value] != ""} {set watch::vcbp_str_len_limit_of_get_value 1024}
1024
ucli% info command stateVerdiChangeCB

ucli% proc stateVerdiChangeCB args { if {$ucliGUI::state eq "terminated"} {puts "\n<VERDI_Terminated>\n";catch {setVerdiSimTerminated}}}

ucli% trace variable ucliGUI::state wu stateVerdiChangeCB

ucli% if {[catch {rename synopsys::restore verdiHack::restore} ]} {puts "0"}

ucli% proc synopsys::restore {args} { verdiHack::restore $args; puts "\n<VERDI_RESTORE>\n"}

ucli% if {[catch {rename quit verdiHack::quit} ]} {puts "0"}

ucli% proc quit {args} { if {[string length $args] == 0} { verdiHack::quit; } elseif {([string equal "-h" $args] == 1)||([string equal "-he" $args] == 1)||([string equal "-hel" $args] == 1)||([string equal "-help" $args] == 1)} { puts "\n quit           # Exit the simulation.\n \[-noprompt\]        (Exit the simulation and Verdi.)\n"} elseif {([string equal "-n" $args] == 1)||([string equal "-no" $args] == 1)||([string equal "-nop" $args] == 1)||([string equal "-nopr" $args] == 1)||([string equal "-nopro" $args] == 1)||([string equal "-noprom" $args] == 1)||([string equal "-nopromp" $args] == 1)||([string equal "-noprompt" $args] == 1)} { puts "\nVERDI_EXIT_N\n" } else { verdiHack::quit $args; } }

ucli% if {[catch {rename exit verdiHack::exit} ]} {puts "0"}

ucli% proc exit {args} { if {[string length $args] == 0} { verdiHack::exit; } elseif {([string equal "-h" $args] == 1)||([string equal "-he" $args] == 1)||([string equal "-hel" $args] == 1)||([string equal "-help" $args] == 1)} { puts "\n exit           # Exit the simulation.\n \[-noprompt\]        (Exit the simulation and Verdi.)\n"} elseif {([string equal "-n" $args] == 1)||([string equal "-no" $args] == 1)||([string equal "-nop" $args] == 1)||([string equal "-nopr" $args] == 1)||([string equal "-nopro" $args] == 1)||([string equal "-noprom" $args] == 1)||([string equal "-nopromp" $args] == 1)||([string equal "-noprompt" $args] == 1)} { puts "\nVERDI_EXIT_N\n" } else { verdiHack::exit $args; } }

ucli% proc checkpoint::beforeRecreate {} { sps_interactive }

ucli% if {[catch {ucliCore::setFocus tool}]} {}

ucli% save::getUserdefinedProcs
::stateVerdiChangeCB ::LoadFSDBDumpCmd
ucli% set ucliCore::resultTagsForVerdi [list <?special_verdi_begin?> <?special_verdi_end?>]
<?special_verdi_begin?> <?special_verdi_end?>
ucli% if {[catch {ucliCore::setFocus tool}]} {}

ucli% fsdbDumpflush 
*Verdi* : Flush all FSDB Files at 0 ps.

ucli% if {[catch {ucliCore::setFocus tool}]} {}

ucli% fsdbDumpvarsByFile {/home/kkh/AIDC/sim/output/VerdiLog/.tbsimDump_var_file};fsdbDumpflush 
*Verdi* : Begin dumping the scopes by file (/home/kkh/AIDC/sim/output/VerdiLog/.tbsimDump_var_file).
*Verdi* : End of dumping.
*Verdi* : Flush all FSDB Files at 0 ps.

ucli% fsdbDumpflush 
*Verdi* : Flush all FSDB Files at 0 ps.

ucli% if {[catch {ucliCore::setFocus tool}]} {}

ucli% fsdbDumpflush 
*Verdi* : Flush all FSDB Files at 0 ps.

ucli% senv
activeDomain: Verilog
activeFile: /home/kkh/AIDC/sim/..//sim/decomp_total_tb/timescale.v
activeFrame: -1
activeLine: 1
activeScope: _vcs_unit__1595730363
activeThread: 133
endCol: 0
file: /home/kkh/AIDC/sim/..//sim/decomp_total_tb/timescale.v
frame: -1
fsdbFilename: 
hasTB: 1
inputFilename: 
keyFilename: ucli.key
line: 1
logFilename: /home/kkh/AIDC/sim/output/VerdiLog/sim.log
macroIndex: -1
macroOffset: -1
pid: 8793
scope: _vcs_unit__1595730363
startCol: 0
state: stopped
thread: 133
time: 0
timePrecision: 1 ps
vcdFilename: 
vpdFilename:
ucli% puts $::ucliCore::cbug_active
0

ucli% if {[catch {ucliCore::setFocus tool}]} {}

ucli% checkpoint -list -all
There are no checkpoints present.
ucli% if {[catch {ucliCore::setFocus tool}]} {}

ucli% stop
No stop points are set
ucli% if {[catch {ucliCore::setFocus tool}]} {}

ucli% run
<slp!&*()_+>
Environmnet setup
<slb!&*()_+>---<sls!&*()_+>loc: -1<sls!&*()_+>src: /home/kkh/AIDC/sim/..//sim/decomp_total_tb/Test.sv<sls!&*()_+>line: 17<sls!&*()_+>time: 0 ps<sls!&*()_+>length: 0<sls!&*()_+>...<sls!&*()_+><sle!&*()_+>
<slp!&*()_+>
Run
<slb!&*()_+>---<sls!&*()_+>loc: -1<sls!&*()_+>src: /home/kkh/AIDC/sim/..//sim/decomp_total_tb/Test.sv<sls!&*()_+>line: 29<sls!&*()_+>time: 0 ps<sls!&*()_+>length: 0<sls!&*()_+>...<sls!&*()_+><sle!&*()_+>
<slp!&*()_+>
[ DRIVER ] ----- Reset Started ----- 
<slb!&*()_+>---<sls!&*()_+>loc: -1<sls!&*()_+>src: /home/kkh/AIDC/sim/..//sim/decomp_total_tb/Driver/Driver_mc_r.sv<sls!&*()_+>line: 18<sls!&*()_+>time: 80000 ps<sls!&*()_+>length: 0<sls!&*()_+>...<sls!&*()_+><sle!&*()_+>
<slp!&*()_+>
[ DRIVER ] ----- Reset Started ----- 
<slb!&*()_+>---<sls!&*()_+>loc: -1<sls!&*()_+>src: /home/kkh/AIDC/sim/..//sim/decomp_total_tb/Driver/Driver_mc_ar.sv<sls!&*()_+>line: 12<sls!&*()_+>time: 80000 ps<sls!&*()_+>length: 0<sls!&*()_+>...<sls!&*()_+><sle!&*()_+>
<slp!&*()_+>
[ DRIVER ] ----- Reset Started ----- 
<slb!&*()_+>---<sls!&*()_+>loc: -1<sls!&*()_+>src: /home/kkh/AIDC/sim/..//sim/decomp_total_tb/Driver/Driver_icnt_r.sv<sls!&*()_+>line: 13<sls!&*()_+>time: 80000 ps<sls!&*()_+>length: 0<sls!&*()_+>...<sls!&*()_+><sle!&*()_+>
<slp!&*()_+>
[ DRIVER ] ----- Reset Started ----- 
<slb!&*()_+>---<sls!&*()_+>loc: -1<sls!&*()_+>src: /home/kkh/AIDC/sim/..//sim/decomp_total_tb/Driver/Driver_icnt_ar.sv<sls!&*()_+>line: 18<sls!&*()_+>time: 80000 ps<sls!&*()_+>length: 0<sls!&*()_+>...<sls!&*()_+><sle!&*()_+>
<slp!&*()_+>
1
<slb!&*()_+>---<sls!&*()_+>loc: -1<sls!&*()_+>src: /home/kkh/AIDC/sim/..//sim/decomp_total_tb/TestBench.sv<sls!&*()_+>line: 34<sls!&*()_+>time: 160000 ps<sls!&*()_+>length: 0<sls!&*()_+>...<sls!&*()_+><sle!&*()_+>
<slp!&*()_+>
[ DRIVER ] ----- Reset Ended -----
<slb!&*()_+>---<sls!&*()_+>loc: -1<sls!&*()_+>src: /home/kkh/AIDC/sim/..//sim/decomp_total_tb/Driver/Driver_mc_r.sv<sls!&*()_+>line: 27<sls!&*()_+>time: 160000 ps<sls!&*()_+>length: 0<sls!&*()_+>...<sls!&*()_+><sle!&*()_+>
<slp!&*()_+>
[ DRIVER ] ----- Reset Ended -----
<slb!&*()_+>---<sls!&*()_+>loc: -1<sls!&*()_+>src: /home/kkh/AIDC/sim/..//sim/decomp_total_tb/Driver/Driver_mc_ar.sv<sls!&*()_+>line: 17<sls!&*()_+>time: 160000 ps<sls!&*()_+>length: 0<sls!&*()_+>...<sls!&*()_+><sle!&*()_+>
<slp!&*()_+>
[ DRIVER ] ----- Reset Ended -----
<slb!&*()_+>---<sls!&*()_+>loc: -1<sls!&*()_+>src: /home/kkh/AIDC/sim/..//sim/decomp_total_tb/Driver/Driver_icnt_r.sv<sls!&*()_+>line: 18<sls!&*()_+>time: 160000 ps<sls!&*()_+>length: 0<sls!&*()_+>...<sls!&*()_+><sle!&*()_+>
<slp!&*()_+>
[ DRIVER ] ----- Reset Ended -----
<slb!&*()_+>---<sls!&*()_+>loc: -1<sls!&*()_+>src: /home/kkh/AIDC/sim/..//sim/decomp_total_tb/Driver/Driver_icnt_ar.sv<sls!&*()_+>line: 28<sls!&*()_+>time: 160000 ps<sls!&*()_+>length: 0<sls!&*()_+>...<sls!&*()_+><sle!&*()_+>
<slp!&*()_+>
env_test_start
<slb!&*()_+>---<sls!&*()_+>loc: -1<sls!&*()_+>src: /home/kkh/AIDC/sim/..//sim/decomp_total_tb/Environment.sv<sls!&*()_+>line: 132<sls!&*()_+>time: 160000 ps<sls!&*()_+>length: 0<sls!&*()_+>...<sls!&*()_+><sle!&*()_+>
<slp!&*()_+>
-----------------------------------------------------------------
<slb!&*()_+>---<sls!&*()_+>loc: -1<sls!&*()_+>src: /home/kkh/AIDC/sim/..//sim/decomp_total_tb/Generator.sv<sls!&*()_+>line: 76<sls!&*()_+>time: 160000 ps<sls!&*()_+>length: 0<sls!&*()_+>...<sls!&*()_+><sle!&*()_+>
<slp!&*()_+>
env_test_end
<slb!&*()_+>---<sls!&*()_+>loc: -1<sls!&*()_+>src: /home/kkh/AIDC/sim/..//sim/decomp_total_tb/Environment.sv<sls!&*()_+>line: 145<sls!&*()_+>time: 160000 ps<sls!&*()_+>length: 0<sls!&*()_+>...<sls!&*()_+><sle!&*()_+>
<slp!&*()_+>
2
<slb!&*()_+>---<sls!&*()_+>loc: -1<sls!&*()_+>src: /home/kkh/AIDC/sim/..//sim/decomp_total_tb/TestBench.sv<sls!&*()_+>line: 34<sls!&*()_+>time: 320000 ps<sls!&*()_+>length: 0<sls!&*()_+>...<sls!&*()_+><sle!&*()_+>
<slp!&*()_+>
3
<slb!&*()_+>---<sls!&*()_+>loc: -1<sls!&*()_+>src: /home/kkh/AIDC/sim/..//sim/decomp_total_tb/TestBench.sv<sls!&*()_+>line: 34<sls!&*()_+>time: 480000 ps<sls!&*()_+>length: 0<sls!&*()_+>...<sls!&*()_+><sle!&*()_+>
<slp!&*()_+>
4
<slb!&*()_+>---<sls!&*()_+>loc: -1<sls!&*()_+>src: /home/kkh/AIDC/sim/..//sim/decomp_total_tb/TestBench.sv<sls!&*()_+>line: 34<sls!&*()_+>time: 640000 ps<sls!&*()_+>length: 0<sls!&*()_+>...<sls!&*()_+><sle!&*()_+>
<slp!&*()_+>
5
<slb!&*()_+>---<sls!&*()_+>loc: -1<sls!&*()_+>src: /home/kkh/AIDC/sim/..//sim/decomp_total_tb/TestBench.sv<sls!&*()_+>line: 34<sls!&*()_+>time: 800000 ps<sls!&*()_+>length: 0<sls!&*()_+>...<sls!&*()_+><sle!&*()_+>
<slp!&*()_+>
6
<slb!&*()_+>---<sls!&*()_+>loc: -1<sls!&*()_+>src: /home/kkh/AIDC/sim/..//sim/decomp_total_tb/TestBench.sv<sls!&*()_+>line: 34<sls!&*()_+>time: 960000 ps<sls!&*()_+>length: 0<sls!&*()_+>...<sls!&*()_+><sle!&*()_+>
<slp!&*()_+>
7
<slb!&*()_+>---<sls!&*()_+>loc: -1<sls!&*()_+>src: /home/kkh/AIDC/sim/..//sim/decomp_total_tb/TestBench.sv<sls!&*()_+>line: 34<sls!&*()_+>time: 1120000 ps<sls!&*()_+>length: 0<sls!&*()_+>...<sls!&*()_+><sle!&*()_+>
<slp!&*()_+>
8
<slb!&*()_+>---<sls!&*()_+>loc: -1<sls!&*()_+>src: /home/kkh/AIDC/sim/..//sim/decomp_total_tb/TestBench.sv<sls!&*()_+>line: 34<sls!&*()_+>time: 1280000 ps<sls!&*()_+>length: 0<sls!&*()_+>...<sls!&*()_+><sle!&*()_+>
<slp!&*()_+>
9
<slb!&*()_+>---<sls!&*()_+>loc: -1<sls!&*()_+>src: /home/kkh/AIDC/sim/..//sim/decomp_total_tb/TestBench.sv<sls!&*()_+>line: 34<sls!&*()_+>time: 1440000 ps<sls!&*()_+>length: 0<sls!&*()_+>...<sls!&*()_+><sle!&*()_+>
<slp!&*()_+>
10
<slb!&*()_+>---<sls!&*()_+>loc: -1<sls!&*()_+>src: /home/kkh/AIDC/sim/..//sim/decomp_total_tb/TestBench.sv<sls!&*()_+>line: 34<sls!&*()_+>time: 1600000 ps<sls!&*()_+>length: 0<sls!&*()_+>...<sls!&*()_+><sle!&*()_+>
<slp!&*()_+>
11
<slb!&*()_+>---<sls!&*()_+>loc: -1<sls!&*()_+>src: /home/kkh/AIDC/sim/..//sim/decomp_total_tb/TestBench.sv<sls!&*()_+>line: 34<sls!&*()_+>time: 1760000 ps<sls!&*()_+>length: 0<sls!&*()_+>...<sls!&*()_+><sle!&*()_+>
<slp!&*()_+>
12
<slb!&*()_+>---<sls!&*()_+>loc: -1<sls!&*()_+>src: /home/kkh/AIDC/sim/..//sim/decomp_total_tb/TestBench.sv<sls!&*()_+>line: 34<sls!&*()_+>time: 1920000 ps<sls!&*()_+>length: 0<sls!&*()_+>...<sls!&*()_+><sle!&*()_+>
<slp!&*()_+>
13
<slb!&*()_+>---<sls!&*()_+>loc: -1<sls!&*()_+>src: /home/kkh/AIDC/sim/..//sim/decomp_total_tb/TestBench.sv<sls!&*()_+>line: 34<sls!&*()_+>time: 2080000 ps<sls!&*()_+>length: 0<sls!&*()_+>...<sls!&*()_+><sle!&*()_+>
<slp!&*()_+>
14
<slb!&*()_+>---<sls!&*()_+>loc: -1<sls!&*()_+>src: /home/kkh/AIDC/sim/..//sim/decomp_total_tb/TestBench.sv<sls!&*()_+>line: 34<sls!&*()_+>time: 2240000 ps<sls!&*()_+>length: 0<sls!&*()_+>...<sls!&*()_+><sle!&*()_+>
<slp!&*()_+>
15
<slb!&*()_+>---<sls!&*()_+>loc: -1<sls!&*()_+>src: /home/kkh/AIDC/sim/..//sim/decomp_total_tb/TestBench.sv<sls!&*()_+>line: 34<sls!&*()_+>time: 2400000 ps<sls!&*()_+>length: 0<sls!&*()_+>...<sls!&*()_+><sle!&*()_+>
<slp!&*()_+>
16
<slb!&*()_+>---<sls!&*()_+>loc: -1<sls!&*()_+>src: /home/kkh/AIDC/sim/..//sim/decomp_total_tb/TestBench.sv<sls!&*()_+>line: 34<sls!&*()_+>time: 2560000 ps<sls!&*()_+>length: 0<sls!&*()_+>...<sls!&*()_+><sle!&*()_+>
<slp!&*()_+>
17
<slb!&*()_+>---<sls!&*()_+>loc: -1<sls!&*()_+>src: /home/kkh/AIDC/sim/..//sim/decomp_total_tb/TestBench.sv<sls!&*()_+>line: 34<sls!&*()_+>time: 2720000 ps<sls!&*()_+>length: 0<sls!&*()_+>...<sls!&*()_+><sle!&*()_+>
<slp!&*()_+>
18
<slb!&*()_+>---<sls!&*()_+>loc: -1<sls!&*()_+>src: /home/kkh/AIDC/sim/..//sim/decomp_total_tb/TestBench.sv<sls!&*()_+>line: 34<sls!&*()_+>time: 2880000 ps<sls!&*()_+>length: 0<sls!&*()_+>...<sls!&*()_+><sle!&*()_+>
<slp!&*()_+>
19
<slb!&*()_+>---<sls!&*()_+>loc: -1<sls!&*()_+>src: /home/kkh/AIDC/sim/..//sim/decomp_total_tb/TestBench.sv<sls!&*()_+>line: 34<sls!&*()_+>time: 3040000 ps<sls!&*()_+>length: 0<sls!&*()_+>...<sls!&*()_+><sle!&*()_+>
<slp!&*()_+>
20
<slb!&*()_+>---<sls!&*()_+>loc: -1<sls!&*()_+>src: /home/kkh/AIDC/sim/..//sim/decomp_total_tb/TestBench.sv<sls!&*()_+>line: 34<sls!&*()_+>time: 3200000 ps<sls!&*()_+>length: 0<sls!&*()_+>...<sls!&*()_+><sle!&*()_+>
<slp!&*()_+>
21
<slb!&*()_+>---<sls!&*()_+>loc: -1<sls!&*()_+>src: /home/kkh/AIDC/sim/..//sim/decomp_total_tb/TestBench.sv<sls!&*()_+>line: 34<sls!&*()_+>time: 3360000 ps<sls!&*()_+>length: 0<sls!&*()_+>...<sls!&*()_+><sle!&*()_+>
<slp!&*()_+>
22
<slb!&*()_+>---<sls!&*()_+>loc: -1<sls!&*()_+>src: /home/kkh/AIDC/sim/..//sim/decomp_total_tb/TestBench.sv<sls!&*()_+>line: 34<sls!&*()_+>time: 3520000 ps<sls!&*()_+>length: 0<sls!&*()_+>...<sls!&*()_+><sle!&*()_+>
<slp!&*()_+>
23
<slb!&*()_+>---<sls!&*()_+>loc: -1<sls!&*()_+>src: /home/kkh/AIDC/sim/..//sim/decomp_total_tb/TestBench.sv<sls!&*()_+>line: 34<sls!&*()_+>time: 3680000 ps<sls!&*()_+>length: 0<sls!&*()_+>...<sls!&*()_+><sle!&*()_+>
<slp!&*()_+>
24
<slb!&*()_+>---<sls!&*()_+>loc: -1<sls!&*()_+>src: /home/kkh/AIDC/sim/..//sim/decomp_total_tb/TestBench.sv<sls!&*()_+>line: 34<sls!&*()_+>time: 3840000 ps<sls!&*()_+>length: 0<sls!&*()_+>...<sls!&*()_+><sle!&*()_+>
<slp!&*()_+>
25
<slb!&*()_+>---<sls!&*()_+>loc: -1<sls!&*()_+>src: /home/kkh/AIDC/sim/..//sim/decomp_total_tb/TestBench.sv<sls!&*()_+>line: 34<sls!&*()_+>time: 4000000 ps<sls!&*()_+>length: 0<sls!&*()_+>...<sls!&*()_+><sle!&*()_+>
<slp!&*()_+>
26
<slb!&*()_+>---<sls!&*()_+>loc: -1<sls!&*()_+>src: /home/kkh/AIDC/sim/..//sim/decomp_total_tb/TestBench.sv<sls!&*()_+>line: 34<sls!&*()_+>time: 4160000 ps<sls!&*()_+>length: 0<sls!&*()_+>...<sls!&*()_+><sle!&*()_+>
<slp!&*()_+>
27
<slb!&*()_+>---<sls!&*()_+>loc: -1<sls!&*()_+>src: /home/kkh/AIDC/sim/..//sim/decomp_total_tb/TestBench.sv<sls!&*()_+>line: 34<sls!&*()_+>time: 4320000 ps<sls!&*()_+>length: 0<sls!&*()_+>...<sls!&*()_+><sle!&*()_+>
<slp!&*()_+>
28
<slb!&*()_+>---<sls!&*()_+>loc: -1<sls!&*()_+>src: /home/kkh/AIDC/sim/..//sim/decomp_total_tb/TestBench.sv<sls!&*()_+>line: 34<sls!&*()_+>time: 4480000 ps<sls!&*()_+>length: 0<sls!&*()_+>...<sls!&*()_+><sle!&*()_+>
<slp!&*()_+>
29
<slb!&*()_+>---<sls!&*()_+>loc: -1<sls!&*()_+>src: /home/kkh/AIDC/sim/..//sim/decomp_total_tb/TestBench.sv<sls!&*()_+>line: 34<sls!&*()_+>time: 4640000 ps<sls!&*()_+>length: 0<sls!&*()_+>...<sls!&*()_+><sle!&*()_+>
<slp!&*()_+>
30
<slb!&*()_+>---<sls!&*()_+>loc: -1<sls!&*()_+>src: /home/kkh/AIDC/sim/..//sim/decomp_total_tb/TestBench.sv<sls!&*()_+>line: 34<sls!&*()_+>time: 4800000 ps<sls!&*()_+>length: 0<sls!&*()_+>...<sls!&*()_+><sle!&*()_+>
<slp!&*()_+>
31
<slb!&*()_+>---<sls!&*()_+>loc: -1<sls!&*()_+>src: /home/kkh/AIDC/sim/..//sim/decomp_total_tb/TestBench.sv<sls!&*()_+>line: 34<sls!&*()_+>time: 4960000 ps<sls!&*()_+>length: 0<sls!&*()_+>...<sls!&*()_+><sle!&*()_+>
<slp!&*()_+>
32
<slb!&*()_+>---<sls!&*()_+>loc: -1<sls!&*()_+>src: /home/kkh/AIDC/sim/..//sim/decomp_total_tb/TestBench.sv<sls!&*()_+>line: 34<sls!&*()_+>time: 5120000 ps<sls!&*()_+>length: 0<sls!&*()_+>...<sls!&*()_+><sle!&*()_+>
<slp!&*()_+>
33
<slb!&*()_+>---<sls!&*()_+>loc: -1<sls!&*()_+>src: /home/kkh/AIDC/sim/..//sim/decomp_total_tb/TestBench.sv<sls!&*()_+>line: 34<sls!&*()_+>time: 5280000 ps<sls!&*()_+>length: 0<sls!&*()_+>...<sls!&*()_+><sle!&*()_+>
<slp!&*()_+>
34
<slb!&*()_+>---<sls!&*()_+>loc: -1<sls!&*()_+>src: /home/kkh/AIDC/sim/..//sim/decomp_total_tb/TestBench.sv<sls!&*()_+>line: 34<sls!&*()_+>time: 5440000 ps<sls!&*()_+>length: 0<sls!&*()_+>...<sls!&*()_+><sle!&*()_+>
<slp!&*()_+>
35
<slb!&*()_+>---<sls!&*()_+>loc: -1<sls!&*()_+>src: /home/kkh/AIDC/sim/..//sim/decomp_total_tb/TestBench.sv<sls!&*()_+>line: 34<sls!&*()_+>time: 5600000 ps<sls!&*()_+>length: 0<sls!&*()_+>...<sls!&*()_+><sle!&*()_+>
<slp!&*()_+>
36
<slb!&*()_+>---<sls!&*()_+>loc: -1<sls!&*()_+>src: /home/kkh/AIDC/sim/..//sim/decomp_total_tb/TestBench.sv<sls!&*()_+>line: 34<sls!&*()_+>time: 5760000 ps<sls!&*()_+>length: 0<sls!&*()_+>...<sls!&*()_+><sle!&*()_+>
<slp!&*()_+>
37
<slb!&*()_+>---<sls!&*()_+>loc: -1<sls!&*()_+>src: /home/kkh/AIDC/sim/..//sim/decomp_total_tb/TestBench.sv<sls!&*()_+>line: 34<sls!&*()_+>time: 5920000 ps<sls!&*()_+>length: 0<sls!&*()_+>...<sls!&*()_+><sle!&*()_+>
<slp!&*()_+>
38
<slb!&*()_+>---<sls!&*()_+>loc: -1<sls!&*()_+>src: /home/kkh/AIDC/sim/..//sim/decomp_total_tb/TestBench.sv<sls!&*()_+>line: 34<sls!&*()_+>time: 6080000 ps<sls!&*()_+>length: 0<sls!&*()_+>...<sls!&*()_+><sle!&*()_+>
<slp!&*()_+>
39
<slb!&*()_+>---<sls!&*()_+>loc: -1<sls!&*()_+>src: /home/kkh/AIDC/sim/..//sim/decomp_total_tb/TestBench.sv<sls!&*()_+>line: 34<sls!&*()_+>time: 6240000 ps<sls!&*()_+>length: 0<sls!&*()_+>...<sls!&*()_+><sle!&*()_+>
<slp!&*()_+>
40
<slb!&*()_+>---<sls!&*()_+>loc: -1<sls!&*()_+>src: /home/kkh/AIDC/sim/..//sim/decomp_total_tb/TestBench.sv<sls!&*()_+>line: 34<sls!&*()_+>time: 6400000 ps<sls!&*()_+>length: 0<sls!&*()_+>...<sls!&*()_+><sle!&*()_+>
<slp!&*()_+>
41
<slb!&*()_+>---<sls!&*()_+>loc: -1<sls!&*()_+>src: /home/kkh/AIDC/sim/..//sim/decomp_total_tb/TestBench.sv<sls!&*()_+>line: 34<sls!&*()_+>time: 6560000 ps<sls!&*()_+>length: 0<sls!&*()_+>...<sls!&*()_+><sle!&*()_+>
<slp!&*()_+>
42
<slb!&*()_+>---<sls!&*()_+>loc: -1<sls!&*()_+>src: /home/kkh/AIDC/sim/..//sim/decomp_total_tb/TestBench.sv<sls!&*()_+>line: 34<sls!&*()_+>time: 6720000 ps<sls!&*()_+>length: 0<sls!&*()_+>...<sls!&*()_+><sle!&*()_+>
<slp!&*()_+>
43
<slb!&*()_+>---<sls!&*()_+>loc: -1<sls!&*()_+>src: /home/kkh/AIDC/sim/..//sim/decomp_total_tb/TestBench.sv<sls!&*()_+>line: 34<sls!&*()_+>time: 6880000 ps<sls!&*()_+>length: 0<sls!&*()_+>...<sls!&*()_+><sle!&*()_+>
<slp!&*()_+>
44
<slb!&*()_+>---<sls!&*()_+>loc: -1<sls!&*()_+>src: /home/kkh/AIDC/sim/..//sim/decomp_total_tb/TestBench.sv<sls!&*()_+>line: 34<sls!&*()_+>time: 7040000 ps<sls!&*()_+>length: 0<sls!&*()_+>...<sls!&*()_+><sle!&*()_+>
<slp!&*()_+>
45
<slb!&*()_+>---<sls!&*()_+>loc: -1<sls!&*()_+>src: /home/kkh/AIDC/sim/..//sim/decomp_total_tb/TestBench.sv<sls!&*()_+>line: 34<sls!&*()_+>time: 7200000 ps<sls!&*()_+>length: 0<sls!&*()_+>...<sls!&*()_+><sle!&*()_+>
<slp!&*()_+>
46
<slb!&*()_+>---<sls!&*()_+>loc: -1<sls!&*()_+>src: /home/kkh/AIDC/sim/..//sim/decomp_total_tb/TestBench.sv<sls!&*()_+>line: 34<sls!&*()_+>time: 7360000 ps<sls!&*()_+>length: 0<sls!&*()_+>...<sls!&*()_+><sle!&*()_+>
<slp!&*()_+>
47
<slb!&*()_+>---<sls!&*()_+>loc: -1<sls!&*()_+>src: /home/kkh/AIDC/sim/..//sim/decomp_total_tb/TestBench.sv<sls!&*()_+>line: 34<sls!&*()_+>time: 7520000 ps<sls!&*()_+>length: 0<sls!&*()_+>...<sls!&*()_+><sle!&*()_+>
<slp!&*()_+>
48
<slb!&*()_+>---<sls!&*()_+>loc: -1<sls!&*()_+>src: /home/kkh/AIDC/sim/..//sim/decomp_total_tb/TestBench.sv<sls!&*()_+>line: 34<sls!&*()_+>time: 7680000 ps<sls!&*()_+>length: 0<sls!&*()_+>...<sls!&*()_+><sle!&*()_+>
<slp!&*()_+>
49
<slb!&*()_+>---<sls!&*()_+>loc: -1<sls!&*()_+>src: /home/kkh/AIDC/sim/..//sim/decomp_total_tb/TestBench.sv<sls!&*()_+>line: 34<sls!&*()_+>time: 7840000 ps<sls!&*()_+>length: 0<sls!&*()_+>...<sls!&*()_+><sle!&*()_+>
<slp!&*()_+>
50
